<svg xmlns="http://www.w3.org/2000/svg" class="icon icon-tabler icon-tabler-arrow-down-right-circle" 
width="64" height="64" viewBox="0 0 24 24" stroke-width="1.5" 
stroke="#bbb" fill="none" stroke-linecap="round" stroke-linejoin="round">
  <path stroke="none" d="M0 0h24v24H0z" fill="none"/>
  <polyline points="12 9 15 12 9 12" />
  <polyline points="12 15 15 12 12 12" />
</svg>